{"type":"data","nodes":[null,{"type":"data","data":[{"blogs":1,"totalCount":37,"currentPage":38,"lastPage":39},[2,10,16,21,26,31],{"id":3,"title":4,"description":5,"createdAt":6,"approxTimeToRead":7,"coverImageUrl":8,"__typename":9},31,"How we express Ourselves","Talking about our online presence and clearing my mind...","2019-06-02T20:17:00.000Z","PT1M","/store/48-my-personal-computing-setup/img.cover.jpeg","Blog",{"id":11,"title":12,"description":13,"createdAt":14,"approxTimeToRead":15,"coverImageUrl":8,"__typename":9},30,"The Post that cannot be posted","OOOH","2019-05-20T10:26:29.000Z","PT0S",{"id":17,"title":18,"description":19,"createdAt":20,"approxTimeToRead":7,"coverImageUrl":8,"__typename":9},29,"The need for IMs","Do we really need Instant Messaging?","2019-04-29T18:43:24.000Z",{"id":22,"title":23,"description":24,"createdAt":25,"approxTimeToRead":15,"coverImageUrl":8,"__typename":9},28,"The game of life","NVM","2019-04-03T17:44:00.000Z",{"id":27,"title":28,"description":29,"createdAt":30,"approxTimeToRead":7,"coverImageUrl":8,"__typename":9},27,"That Mini-Heart Attack","Oh, damn that was close. Missed by that much...","2019-03-20T23:53:10.000Z",{"id":32,"title":33,"description":34,"createdAt":35,"approxTimeToRead":36,"coverImageUrl":8,"__typename":9},26,"Failure","Just calm down sir...","2019-02-02T06:10:00.000Z","PT2M",49,4,9],"uses":{"params":["page"]}}]}
