{"type":"data","nodes":[null,{"type":"data","data":[{"blogs":1,"totalCount":37,"currentPage":38,"lastPage":39},[2,10,16,21,26,31],{"id":3,"title":4,"description":5,"createdAt":6,"approxTimeToRead":7,"coverImageUrl":8,"__typename":9},25,"My Love-Hate Relationship","I should discuss my love-hate relationship. You're gonna wanna listen to this... 😂","2019-01-27T20:21:48.000Z","PT2M","/store/48-my-personal-computing-setup/img.cover.jpeg","Blog",{"id":11,"title":12,"description":13,"createdAt":14,"approxTimeToRead":15,"coverImageUrl":8,"__typename":9},24,"Understanding your Dreams","What can our dreams tell about us?","2019-01-23T13:12:37.000Z","PT1M",{"id":17,"title":18,"description":19,"createdAt":20,"approxTimeToRead":15,"coverImageUrl":8,"__typename":9},23,"Friends","Good ol' friends. Can't live with them, can't live without 'em...","2018-11-21T08:13:05.000Z",{"id":22,"title":23,"description":24,"createdAt":25,"approxTimeToRead":7,"coverImageUrl":8,"__typename":9},22,"Four Unexplainable Years","WOW. These four years went past real fast.","2018-07-05T00:47:00.000Z",{"id":27,"title":28,"description":29,"createdAt":30,"approxTimeToRead":7,"coverImageUrl":8,"__typename":9},21,"So, how did I do?","Uh... Just my advice about campus placements...","2017-08-30T20:29:17.000Z",{"id":32,"title":33,"description":34,"createdAt":35,"approxTimeToRead":36,"coverImageUrl":8,"__typename":9},20,"My Interview Experience","How did I do in my college interview and landed my first job! 🥳","2017-08-24T12:21:26.000Z","PT4M",49,5,9],"uses":{"params":["page"]}}]}
