{"type":"data","nodes":[null,{"type":"data","data":[{"blogs":1,"totalCount":37,"currentPage":38,"lastPage":39},[2,10,16,21,27,32],{"id":3,"title":4,"description":5,"createdAt":6,"approxTimeToRead":7,"coverImageUrl":8,"__typename":9},7,"Update: A Nice Adventure\"\"","Just a quick update about what went down.","2015-04-03T00:22:00.000Z","PT0S","/store/48-my-personal-computing-setup/img.cover.jpeg","Blog",{"id":11,"title":12,"description":13,"createdAt":14,"approxTimeToRead":15,"coverImageUrl":8,"__typename":9},6,"A Nice Adventure","Let's see what I've been doing... Oh, and my windows isn't working 😂","2015-04-03T00:01:00.000Z","PT2M",{"id":17,"title":18,"description":19,"createdAt":20,"approxTimeToRead":15,"coverImageUrl":8,"__typename":9},5,"Solving a few Issues","Get your linux on.","2015-03-08T23:19:00.000Z",{"id":22,"title":23,"description":24,"createdAt":25,"approxTimeToRead":26,"coverImageUrl":8,"__typename":9},4,"The Real Me","RealTalk","2015-03-01T16:33:00.000Z","PT1M",{"id":28,"title":29,"description":30,"createdAt":31,"approxTimeToRead":7,"coverImageUrl":8,"__typename":9},3,"Starting to like Ubuntu","Experience with Ubuntu. Small post.","2015-02-20T20:54:00.000Z",{"id":33,"title":34,"description":35,"createdAt":36,"approxTimeToRead":7,"coverImageUrl":8,"__typename":9},2,"Leaving a Customer Tailored Operating System","Sorry Windows... See you later","2015-02-04T17:32:00.000Z",49,8,9],"uses":{"params":["page"]}}]}
