{"type":"data","nodes":[null,{"type":"data","data":[{"blogs":1,"totalCount":37,"currentPage":38,"lastPage":39},[2,10,16,21,26,32],{"id":3,"title":4,"description":5,"createdAt":6,"approxTimeToRead":7,"coverImageUrl":8,"__typename":9},37,"Adonis V5: Writing your first custom provider!","From the past couple of days, I've been working with Adonis V5. In fact, this site's API is being written with Adonis V5. It's a really cool and feature-packed Framework for node...","2020-07-13T17:21:02.000Z","PT4M","/store/48-my-personal-computing-setup/img.cover.jpeg","Blog",{"id":11,"title":12,"description":13,"createdAt":14,"approxTimeToRead":15,"coverImageUrl":8,"__typename":9},36,"CI for monorepos?","How does one go about doing CI-CD for monorepos. Just checking how I should manage CI in this portfolio project without creating unnecessary complications...","2020-07-11T14:50:00.000Z","PT0S",{"id":17,"title":18,"description":19,"createdAt":20,"approxTimeToRead":15,"coverImageUrl":8,"__typename":9},35,"First!","My first ever post? This is a new beginning. Just testing... 1. 2. 3...","2020-05-21T16:18:35.000Z",{"id":22,"title":23,"description":24,"createdAt":25,"approxTimeToRead":15,"coverImageUrl":8,"__typename":9},34,"301","HTTP 301: Redirecting this blog to a new home...","2019-12-13T07:58:45.000Z",{"id":27,"title":28,"description":29,"createdAt":30,"approxTimeToRead":31,"coverImageUrl":8,"__typename":9},33,"Should I move on?","Just things on my mind","2019-10-17T22:56:08.000Z","PT1M",{"id":33,"title":34,"description":35,"createdAt":36,"approxTimeToRead":31,"coverImageUrl":8,"__typename":9},32,"Maintaining a triphasic sleep cycle","Getting my regular needed sleep everyday, how tho?","2019-06-14T22:25:10.000Z",49,3,9],"uses":{"params":["page"]}}]}
