{"type":"data","nodes":[null,{"type":"data","data":[{"blogs":1,"totalCount":3,"currentPage":41,"lastPage":42},[2,10,17,24,29,35],{"id":3,"title":4,"description":5,"createdAt":6,"approxTimeToRead":7,"coverImageUrl":8,"__typename":9},49,"Software Versioning - An Introduction with GitVersion","Software Versioning is something we all must do. Let's checkout the basics, and also, GitVersion.","2021-07-25T11:20:52.000Z","PT6M","https://images.unsplash.com/photo-1619369464529-fb194de62e9b","Blog",{"id":11,"title":12,"description":13,"createdAt":14,"approxTimeToRead":15,"coverImageUrl":16,"__typename":9},48,"My Personal Computing Setup","Let's see how I've configured my PC build with all the bells and whistles I need","2021-07-18T11:47:03.000Z","PT4M","/store/48-my-personal-computing-setup/img.cover.jpeg",{"id":18,"title":19,"description":20,"createdAt":21,"approxTimeToRead":22,"coverImageUrl":23,"__typename":9},47,"Learnings from creating my first VSCode Extension","I created my first VSCode Extension, and here is what I learned.","2021-06-23T13:46:45.000Z","PT0S","https://images.unsplash.com/photo-1619369464937-612eb8b47d17",{"id":25,"title":26,"description":27,"createdAt":28,"approxTimeToRead":15,"coverImageUrl":16,"__typename":9},46,"Downsizing Docker Images (~20X Improvement)","Let's see how to create smaller docker images for all your projects","2021-06-18T04:41:09.000Z",{"id":30,"title":31,"description":32,"createdAt":33,"approxTimeToRead":34,"coverImageUrl":16,"__typename":9},45,"Referential Data Validations with yupjs","How do I validate properties on an object where references to other properties is required?","2021-05-23T13:42:40.000Z","PT5M",{"id":36,"title":37,"description":38,"createdAt":39,"approxTimeToRead":40,"coverImageUrl":16,"__typename":9},44,"Documenting .env files for nodejs Projects","Created an npm package to generate template files for documentation","2021-05-14T18:37:04.000Z","PT1M",1,9],"uses":{"params":["page"]}}]}
