{"type":"data","nodes":[null,{"type":"data","data":[{"blogs":1,"totalCount":36,"currentPage":37,"lastPage":38},[2,10,15,20,26,31],{"id":3,"title":4,"description":5,"createdAt":6,"approxTimeToRead":7,"coverImageUrl":8,"__typename":9},19,"Where have I been?","What the hell have I been upto? Where was I all this while?","2017-08-13T22:47:08.000Z","PT1M","/store/48-my-personal-computing-setup/img.cover.jpeg","Blog",{"id":11,"title":12,"description":13,"createdAt":14,"approxTimeToRead":7,"coverImageUrl":8,"__typename":9},18,"Things //To Do right after you install a Linux Distro","Well, if you're starting to use a new Linux machine, prolly go through this...","2016-08-07T01:42:00.000Z",{"id":16,"title":17,"description":18,"createdAt":19,"approxTimeToRead":7,"coverImageUrl":8,"__typename":9},17,"The Timer Class","Today I wrote some C++ ","2016-05-05T09:40:00.000Z",{"id":21,"title":22,"description":23,"createdAt":24,"approxTimeToRead":25,"coverImageUrl":8,"__typename":9},16,"Getting reference to the Accent Color","Some UWP magic for ya. Get the accent color of the machine with this small snippet...","2016-02-14T23:26:04.000Z","PT0S",{"id":27,"title":28,"description":29,"createdAt":30,"approxTimeToRead":25,"coverImageUrl":8,"__typename":9},15,"Catching up...","Things that I'm doing these days.","2015-12-14T18:40:00.000Z",{"id":32,"title":33,"description":34,"createdAt":35,"approxTimeToRead":25,"coverImageUrl":8,"__typename":9},14,"Moving...","Moving this blog to a new home..","2015-09-18T19:18:00.000Z",49,6,9],"uses":{"params":["page"]}}]}
