{"type":"data","nodes":[null,{"type":"data","data":[{"blogs":1,"totalCount":39,"currentPage":40,"lastPage":41},[2,10,16,22,27,33],{"id":3,"title":4,"description":5,"createdAt":6,"approxTimeToRead":7,"coverImageUrl":8,"__typename":9},43,"I hosted my website on a custom domain!","I hosted my website on a custom domain. So what exactly did I do? And what did I learn?","2021-02-10T16:59:00.000Z","PT3M","/store/48-my-personal-computing-setup/img.cover.jpeg","Blog",{"id":11,"title":12,"description":13,"createdAt":14,"approxTimeToRead":15,"coverImageUrl":8,"__typename":9},42,"300 Days of French","Quick update on my french language journey after 'trois cent jours'","2021-01-31T17:28:47.000Z","PT2M",{"id":17,"title":18,"description":19,"createdAt":20,"approxTimeToRead":21,"coverImageUrl":8,"__typename":9},41,"Got my first Cloud Certification","Achievement unlocked. AZ900. Let's discuss what you need to know to get this certification.","2021-01-16T14:17:56.000Z","PT0S",{"id":23,"title":24,"description":25,"createdAt":26,"approxTimeToRead":15,"coverImageUrl":8,"__typename":9},40,"Custom VSCode Profiles + Migrating old ones","Let's create isolated VSCode profiles. Also understanding how to migrate settings and extensions from old profile.","2020-11-22T10:41:35.000Z",{"id":28,"title":29,"description":30,"createdAt":31,"approxTimeToRead":32,"coverImageUrl":8,"__typename":9},39,"Hello comments!","Let's allow for some interactions... Enter, comments.","2020-09-30T11:44:56.000Z","PT1M",{"id":34,"title":35,"description":36,"createdAt":37,"approxTimeToRead":38,"coverImageUrl":8,"__typename":9},38,"Adding TypeScript to Sapper Projects","Finally! Let's add TypeScript to an exising Sapper project","2020-07-22T00:25:37.000Z","PT5M",49,2,9],"uses":{"params":["page"]}}]}
