{"type":"data","nodes":[null,{"type":"data","data":[{"blogs":1,"totalCount":10,"currentPage":11,"lastPage":11},[2],{"id":3,"title":4,"description":5,"createdAt":6,"approxTimeToRead":7,"coverImageUrl":8,"__typename":9},1,"Stuff from the Past","Things that I did in the past but forgot to write about and starting this blog for the same reason...","2015-01-26T10:34:00.000Z","PT1M","/store/48-my-personal-computing-setup/img.cover.jpeg","Blog",49,9],"uses":{"params":["page"]}}]}
