{"type":"data","nodes":[null,{"type":"data","data":[{"blogs":1,"totalCount":37,"currentPage":38,"lastPage":28},[2,10,16,21,27,32],{"id":3,"title":4,"description":5,"createdAt":6,"approxTimeToRead":7,"coverImageUrl":8,"__typename":9},13,"First Year Complete, Almost","And the first year of college comes to a close...","2015-07-02T00:12:00.000Z","PT3M","/store/48-my-personal-computing-setup/img.cover.jpeg","Blog",{"id":11,"title":12,"description":13,"createdAt":14,"approxTimeToRead":15,"coverImageUrl":8,"__typename":9},12,"Been Busy","Just busy with college work... 😫","2015-06-20T16:18:00.000Z","PT0S",{"id":17,"title":18,"description":19,"createdAt":20,"approxTimeToRead":15,"coverImageUrl":8,"__typename":9},11,"Recommended Channels","Some YouTube recommendations for you.","2015-05-17T19:52:00.000Z",{"id":22,"title":23,"description":24,"createdAt":25,"approxTimeToRead":26,"coverImageUrl":8,"__typename":9},10,"Have Been Busy","What's up?","2015-05-16T22:57:00.000Z","PT1M",{"id":28,"title":29,"description":30,"createdAt":31,"approxTimeToRead":15,"coverImageUrl":8,"__typename":9},9,"What to do?","Just chillin'","2015-04-18T23:40:00.000Z",{"id":33,"title":34,"description":35,"createdAt":36,"approxTimeToRead":26,"coverImageUrl":8,"__typename":9},8,"Networking","Some networking stuff here...","2015-04-04T20:18:00.000Z",49,7],"uses":{"params":["page"]}}]}
